   {
       "Servers": {
         "1": {
           "Name": "PG Admin",
           "Group": "Servers",
           "Port": 5432,
           "Username": "pgadmin",
           "Host": "192.168.0.241",
           "SSLMode": "prefer",
           "MaintenanceDB": "pgadmin"
         }
       }
   }

