# Liste der zugewiesenen "Ownertrust"-Werte, erzeugt am Mi 01 Dez 2021 17:06:37 CET
# ("gpg --import-ownertrust" um sie zu restaurieren)
CBC4873E3629F1DD4A1395AECE251CDF337C3648:6:
0E5B294903370EA1E3F388F32487C26A4C025DC4:6:
3F6218A6DFEDFD70FBCF969231054A50311130DC:6:
B7873413E83DAC13A4D6A0DE2065946BB836ED2E:6:
C6B2E2DED46CDB6F294E07C6CF80E0DFFE55BBB8:6:
812C33A79592A6836B87981BEE98246114818750:6:
D5C4C4DA44801830BB4B890235B68A128C6EB8F7:6:
2EFF20BE0D53E9E885241BBF686A23C39D88B381:6:
