module GetInfo

go 1.16

require (
	github.com/StackExchange/wmi v1.2.1 // indirect
	github.com/shirou/gopsutil v3.21.9+incompatible // indirect
	github.com/tklauser/go-sysconf v0.3.9 // indirect
	golang.org/x/sys v0.0.0-20211007075335-d3039528d8ac // indirect
)
